…
if (requireNamespace("dplyr", quietly = TRUE)) {
  dplyr::count(episodes, primary_country, sort = TRUE)
}
#> # A tibble: 31 × 2
#>    primary_country     n
#>    <chr>           <int>
#>  1 Italy              29
#>  2 Multiple           20
#>  3 United Kingdom     20
#>  4 France             15
#>  5 Germany             9
#>  6 Spain               9
#>  7 Turkey              6
#>  8 Austria             4
#>  9 Greece              4
#> 10 Portugal            4
#> # ℹ 21 more rows
```
